^E:\MY PROJECTS\TESTAPPS\EBMLMKVPARSER\EBMLMKVPARSER\STDAFX.CPP
/c /ZI /nologo /W3 /WX- /sdl /Od /Oy- /D WIN32 /D _DEBUG /D _CONSOLE /D _UNICODE /D UNICODE /Gm /EHsc /RTC1 /MDd /GS /fp:precise /Zc:wchar_t /Zc:forScope /Zc:inline /Yc"stdafx.h" /Fp"DEBUG\EBMLMKVPARSER.PCH" /Fo"DEBUG\\" /Fd"DEBUG\VC140.PDB" /Gd /TP /analyze- E:\MY PROJECTS\TESTAPPS\EBMLMKVPARSER\EBMLMKVPARSER\STDAFX.CPP
^E:\MY PROJECTS\TESTAPPS\EBMLMKVPARSER\EBMLMKVPARSER\EBMLMKVPARSER.CPP
/c /ZI /nologo /W3 /WX- /sdl /Od /Oy- /D WIN32 /D _DEBUG /D _CONSOLE /D _UNICODE /D UNICODE /Gm /EHsc /RTC1 /MDd /GS /fp:precise /Zc:wchar_t /Zc:forScope /Zc:inline /Yu"stdafx.h" /Fp"DEBUG\EBMLMKVPARSER.PCH" /Fo"DEBUG\\" /Fd"DEBUG\VC140.PDB" /Gd /TP /analyze- E:\MY PROJECTS\TESTAPPS\EBMLMKVPARSER\EBMLMKVPARSER\EBMLMKVPARSER.CPP
