^E:\MY PROJECTS\TESTAPPS\EBMLMKVPARSER\EBMLMKVPARSER\DEBUG\EBMLMKVPARSER.OBJ|E:\MY PROJECTS\TESTAPPS\EBMLMKVPARSER\EBMLMKVPARSER\DEBUG\STDAFX.OBJ
E:\MY PROJECTS\TESTAPPS\EBMLMKVPARSER\DEBUG\EBMLMKVPARSER.ILK
E:\MY PROJECTS\TESTAPPS\EBMLMKVPARSER\DEBUG\EBMLMKVPARSER.EXE
E:\MY PROJECTS\TESTAPPS\EBMLMKVPARSER\DEBUG\EBMLMKVPARSER.PDB
